
{
    "title":"lemon",
    "pages":[
        {
            "title":"Page",
            "font":"Font 1",
            "elements":[
                {
                    "type":"p",
                    "text":"hello",
                    "font":"Font 1"
                },
                {
                    "type":"img",
                    "source":"temp\\img\\DirtBlockCenter2.png",
                    "font":"Font 1"
                }
            ]
        }
    ]
}