
{
    "title":"tick",
    "pages":[
        {
            "title":"Page",
            "font":"Font 1",
            "elements":[
                {
                    "type":"img",
                    "source":"DirtwithGrass2.png",
                    "font":"Font 1"
                },
                {
                    "type":"img",
                    "source":"bytehost info.PNG",
                    "font":"Font 1"
                }
            ]
        }
    ]
}